{
  "title": "eileen wagner is a UX designer and conceptual engineer.",
  "url": "https://bumble.blue",
  "description": "eileen wagner, ux design",
  "author": {
    "name": "Eileen Wagner",
    "email": "hello@bumble.blue",
    "gitlab": "https://gitlab.com/bumbleblue/bumbleblog"
  }
}
